# This file may be used to create an environment using:
# $ conda create --name <env> --file <this file>
# platform: osx-64
blas=1.0=mkl
ca-certificates=2018.03.07=0
certifi=2018.4.16=py36_0
intel-openmp=2018.0.3=0
libcxx=4.0.1=h579ed51_0
libcxxabi=4.0.1=hebd6815_0
libedit=3.1.20170329=hb402a30_2
libffi=3.2.1=h475c297_4
libgfortran=3.0.1=h93005f0_2
mkl=2018.0.3=1
mkl_fft=1.0.1=py36h917ab60_0
mkl_random=1.0.1=py36h78cc56f_0
ncurses=6.1=h0a44026_0
numpy=1.14.5=py36h9bb19eb_0
numpy-base=1.14.5=py36ha9ae307_0
openssl=1.0.2o=h26aff7b_0
pip=10.0.1=py36_0
python=3.6.5=hc167b69_1
readline=7.0=hc1231fa_4
setuptools=39.2.0=py36_0
sqlite=3.23.1=hf1716c9_0
tk=8.6.7=h35a86e2_3
wheel=0.31.1=py36_0
xz=5.2.4=h1de35cc_4
zlib=1.2.11=hf3cbc9b_2
